SPI_Master_Max7219/SPI.sim/sim_1/behav/xsim/spi_master_tb.vcd
$date
   Mon Apr 28 10:29:27 2025
$end
$version
  2019.1
$end
$timescale
  1ps
$end
$scope module spi_master_tb $end
$var reg 1 ! clk $end
$var reg 1 " rst_n $end
$var wire 1 # sclk $end
$var wire 1 $ mosi $end
$var wire 1 % cs_n $end
$scope module uut $end
$var wire 1 & clk $end
$var wire 1 ' rst_n $end
$var reg 1 ( sclk $end
$var reg 1 ) mosi $end
$var reg 1 * cs_n $end
$var reg 6 + bit_cnt [5:0] $end
$var reg 16 , shift_reg [15:0] $end
$var reg 1 - start $end
$var reg 4 . stt [3:0] $end
$upscope $end
$upscope $end
$enddefinitions $end
#0
$dumpvars
0!
0"
0#
x$
1%
0&
0'
0(
x)
1*
b0 +
bx ,
1-
b0 .
$end
#10000
1!
1&
#20000
0!
0&
#30000
1!
1&
#40000
0!
0&
#50000
1!
1&
#60000
0!
0&
#70000
1!
1&
#80000
0!
0&
#90000
1!
1&
#100000
0!
1"
0&
1'
#110000
1!
0%
1&
0*
b111100000000 ,
0-
#120000
0!
0&
#130000
1!
0$
1&
0)
b1 +
b1111000000000 ,
#140000
0!
0&
#150000
1!
1#
1&
1(
b10 +
#160000
0!
0&
#170000
1!
0#
1&
0(
b11 +
b11110000000000 ,
#180000
0!
0&
#190000
1!
1#
1&
1(
b100 +
#200000
0!
0&
#210000
1!
0#
1&
0(
b101 +
b111100000000000 ,
#220000
0!
0&
#230000
1!
1#
1&
1(
b110 +
#240000
0!
0&
#250000
1!
0#
1&
0(
b111 +
b1111000000000000 ,
#260000
0!
0&
#270000
1!
1#
1&
1(
b1000 +
#280000
0!
0&
#290000
1!
0#
1$
1&
0(
1)
b1001 +
b1110000000000001 ,
#300000
0!
0&
#310000
1!
1#
1&
1(
b1010 +
#320000
0!
0&
#330000
1!
0#
1&
0(
b1011 +
b1100000000000011 ,
#340000
0!
0&
#350000
1!
1#
1&
1(
b1100 +
#360000
0!
0&
#370000
1!
0#
1&
0(
b1101 +
b1000000000000111 ,
#380000
0!
0&
#390000
1!
1#
1&
1(
b1110 +
#400000
0!
0&
#410000
1!
0#
1&
0(
b1111 +
b1111 ,
#420000
0!
0&
#430000
1!
1#
1&
1(
b10000 +
#440000
0!
0&
#450000
1!
0#
0$
1&
0(
0)
b10001 +
b11110 ,
#460000
0!
0&
#470000
1!
1#
1&
1(
b10010 +
#480000
0!
0&
#490000
1!
0#
1&
0(
b10011 +
b111100 ,
#500000
0!
0&
#510000
1!
1#
1&
1(
b10100 +
#520000
0!
0&
#530000
1!
0#
1&
0(
b10101 +
b1111000 ,
#540000
0!
0&
#550000
1!
1#
1&
1(
b10110 +
#560000
0!
0&
#570000
1!
0#
1&
0(
b10111 +
b11110000 ,
#580000
0!
0&
#590000
1!
1#
1&
1(
b11000 +
#600000
0!
0&
#610000
1!
0#
1&
0(
b11001 +
b111100000 ,
#620000
0!
0&
#630000
1!
1#
1&
1(
b11010 +
#640000
0!
0&
#650000
1!
0#
1&
0(
b11011 +
b1111000000 ,
#660000
0!
0&
#670000
1!
1#
1&
1(
b11100 +
#680000
0!
0&
#690000
1!
0#
1&
0(
b11101 +
b11110000000 ,
#700000
0!
0&
#710000
1!
1#
1&
1(
b11110 +
#720000
0!
0&
#730000
1!
0#
1&
0(
b11111 +
b111100000000 ,
#740000
0!
0&
#750000
1!
1#
1&
1(
b100000 +
#760000
0!
0&
#770000
1!
0#
1%
1&
0(
1*
b0 +
b1111000000000 ,
1-
b1 .
#780000
0!
0&
#790000
1!
0%
1&
0*
b100111111111 ,
0-
#800000
0!
0&
#810000
1!
1&
b1 +
b1001111111110 ,
#820000
0!
0&
#830000
1!
1#
1&
1(
b10 +
#840000
0!
0&
#850000
1!
0#
1&
0(
b11 +
b10011111111100 ,
#860000
0!
0&
#870000
1!
1#
1&
1(
b100 +
#880000
0!
0&
#890000
1!
0#
1&
0(
b101 +
b100111111111000 ,
#900000
0!
0&
#910000
1!
1#
1&
1(
b110 +
#920000
0!
0&
#930000
1!
0#
1&
0(
b111 +
b1001111111110000 ,
#940000
0!
0&
#950000
1!
1#
1&
1(
b1000 +
#960000
0!
0&
#970000
1!
0#
1$
1&
0(
1)
b1001 +
b11111111100001 ,
#980000
0!
0&
#990000
1!
1#
1&
1(
b1010 +
