uart_copy/UART_COPY.sim/sim_1/behav/xsim/tb_top_module.vcd
$date
   Mon Apr 14 10:17:35 2025
$end
$version
  2019.1
$end
$timescale
  1ps
$end
$scope module tb_top_module $end
$var reg 1 ! CLK50MHZ $end
$var reg 1 " reset $end
$var reg 1 # UART_RX $end
$var wire 8 $ LED [7:0] $end
$var parameter 32 % CLK_PERIOD [31:0] $end
$var parameter 32 & BAUD_RATE [31:0] $end
$var parameter 32 ' BIT_PERIOD [31:0] $end
$scope module uut $end
$var wire 1 ( CLK50MHZ $end
$var wire 1 ) reset $end
$var wire 1 * UART_RX $end
$var reg 4 + LED [3:0] $end
$var wire 8 , rx_data [7:0] $end
$var wire 1 - rx_ready $end
$scope module uart_receiver $end
$var wire 1 ( clk $end
$var wire 1 ) rst $end
$var wire 1 * rx $end
$var reg 8 . data_out [7:0] $end
$var reg 1 / data_ready $end
$var reg 16 0 clk_count [15:0] $end
$var reg 4 1 bit_index [3:0] $end
$var reg 8 2 rx_shift_reg [7:0] $end
$var reg 1 3 receiving $end
$var reg 1 4 rx_sync_0 $end
$var reg 1 5 rx_sync_1 $end
$var wire 1 6 rx_falling_edge $end
$var parameter 32 7 CLK_FREQ [31:0] $end
$var parameter 32 8 BAUD_RATE [31:0] $end
$var parameter 32 9 CLKS_PER_BIT [31:0] $end
$upscope $end
$upscope $end
$scope task uart_send_byte $end
$var reg 8 : data [7:0] $end
$var integer 32 ; i $end
$upscope $end
$upscope $end
$enddefinitions $end
#0
$dumpvars
0!
1"
1#
bzxxxx $
b10100 %
b11100001000000000 &
b10000111101000 '
0(
1)
1*
bx +
bx ,
x-
bx .
x/
b0 0
b0 1
b0 2
03
x4
x5
x6
b10111110101111000010000000 7
b11100001000000000 8
b110110010 9
bx :
bx ;
$end
#10000
1!
bz1001 $
1(
b1001 +
0-
0/
14
06
#20000
0!
0(
#30000
1!
1(
15
#40000
0!
0(
#50000
1!
1(
#60000
0!
0(
#70000
1!
1(
#80000
0!
0(
#90000
1!
1(
#100000
0!
0"
0(
0)
#110000
1!
1(
#120000
0!
0(
#130000
1!
1(
#140000
0!
0(
#150000
1!
1(
#160000
0!
0(
#170000
1!
1(
#180000
0!
0(
#190000
1!
1(
#200000
0!
0#
0(
0*
b1010101 :
#210000
1!
1(
04
16
#220000
0!
0(
#230000
1!
1(
b11011001 0
13
05
06
#240000
0!
0(
#250000
1!
1(
b11011010 0
#260000
0!
0(
#270000
1!
1(
b11011011 0
#280000
0!
0(
#290000
1!
1(
b11011100 0
#300000
0!
0(
#310000
1!
1(
b11011101 0
#320000
0!
0(
#330000
1!
1(
b11011110 0
#340000
0!
0(
#350000
1!
1(
b11011111 0
#360000
0!
0(
#370000
1!
1(
b11100000 0
#380000
0!
0(
#390000
1!
1(
b11100001 0
#400000
0!
0(
#410000
1!
1(
b11100010 0
#420000
0!
0(
#430000
1!
1(
b11100011 0
#440000
0!
0(
#450000
1!
1(
b11100100 0
#460000
0!
0(
#470000
1!
1(
b11100101 0
#480000
0!
0(
#490000
1!
1(
b11100110 0
#500000
0!
0(
#510000
1!
1(
b11100111 0
#520000
0!
0(
#530000
1!
1(
b11101000 0
#540000
0!
0(
#550000
1!
1(
b11101001 0
#560000
0!
0(
#570000
1!
1(
b11101010 0
#580000
0!
0(
#590000
1!
1(
b11101011 0
#600000
0!
0(
#610000
1!
1(
b11101100 0
#620000
0!
0(
#630000
1!
1(
b11101101 0
#640000
0!
0(
#650000
1!
1(
b11101110 0
#660000
0!
0(
#670000
1!
1(
b11101111 0
#680000
0!
0(
#690000
1!
1(
b11110000 0
#700000
0!
0(
#710000
1!
1(
b11110001 0
#720000
0!
0(
#730000
1!
1(
b11110010 0
#740000
0!
0(
#750000
1!
1(
b11110011 0
#760000
0!
0(
#770000
1!
1(
b11110100 0
#780000
0!
0(
#790000
1!
1(
b11110101 0
#800000
0!
0(
#810000
1!
1(
b11110110 0
#820000
0!
0(
#830000
1!
1(
b11110111 0
#840000
0!
0(
#850000
1!
1(
b11111000 0
#860000
0!
0(
#870000
1!
1(
b11111001 0
#880000
0!
0(
#890000
1!
1(
b11111010 0
#900000
0!
0(
#910000
1!
1(
b11111011 0
#920000
0!
0(
#930000
1!
1(
b11111100 0
#940000
0!
0(
#950000
1!
1(
b11111101 0
#960000
0!
0(
#970000
1!
1(
b11111110 0
#980000
0!
0(
#990000
1!
1(
b11111111 0
